\relax 
\@setckpt{contenu/annexes/pageDeTitre}{
\setcounter{page}{6}
\setcounter{equation}{0}
\setcounter{enumi}{0}
\setcounter{enumii}{0}
\setcounter{enumiii}{0}
\setcounter{enumiv}{0}
\setcounter{footnote}{0}
\setcounter{mpfootnote}{0}
\setcounter{part}{0}
\setcounter{chapter}{0}
\setcounter{section}{0}
\setcounter{subsection}{0}
\setcounter{subsubsection}{0}
\setcounter{paragraph}{0}
\setcounter{subparagraph}{0}
\setcounter{figure}{0}
\setcounter{table}{0}
\setcounter{Item}{0}
\setcounter{Hfootnote}{18}
\setcounter{lstnumber}{5}
\setcounter{float@type}{8}
\setcounter{AM@survey}{0}
\setcounter{lips@count}{0}
\setcounter{exemples}{0}
\setcounter{su@anzahl}{0}
\setcounter{DTLrowi}{0}
\setcounter{DTLrowii}{0}
\setcounter{DTLrowiii}{0}
\setcounter{DTLrow}{0}
\setcounter{section@level}{1}
\setcounter{lstlisting}{0}
}
